taller
…
Crear un columna con números aleatorios y escoger las primeras 350
observaciones para tener nuestros datos de muestra
diamonds_20220718.

diamonds_20220718 <- diamonds

diamonds_20220718$fila <- runif(53940, min = 0, max = 1000)

diamonds_20220718 <- diamonds_20220718[order(diamonds_20220718$fila), ]

diamonds_20220718 <- diamonds_20220718[1:350, ]

diamonds_20220718

## # A tibble: 350 x 11
##    carat cut       color clarity depth table price     x     y     z   fila
##    <dbl> <ord>     <ord> <ord>   <dbl> <dbl> <int> <dbl> <dbl> <dbl>  <dbl>
##  1  0.71 Very Good I     VVS2     59.5    60  2400  5.82  5.87  3.48 0.0150
##  2  0.32 Very Good E     SI1      63.1    54   672  4.41  4.37  2.77 0.0813
##  3  0.28 Very Good E     VVS2     64      54   572  4.11  4.17  2.65 0.0920
##  4  0.26 Premium   E     VVS1     61.8    58   769  4.14  4.11  2.55 0.117 
##  5  0.5  Very Good F     VS2      62.8    57  1402  5.05  5.08  3.18 0.154 
##  6  0.37 Ideal     G     VVS2     60.7    55  1073  4.66  4.7   2.84 0.165 
##  7  1    Very Good D     SI2      63.5    59  4295  6.35  6.32  4.02 0.166 
##  8  0.7  Good      D     VS2      64.1    59  3033  5.56  5.49  3.54 0.171 
##  9  1.01 Good      D     SI1      63.9    61  5055  6.28  6.31  4.02 0.196 
## 10  0.31 Ideal     G     VVS1     61      57   789  4.38  4.4   2.68 0.201 
## # ... with 340 more rows
## # i Use `print(n = ...)` to see more rows
…
